{"total_results": 56, "total_pages": 3, "page": 1, "results": [{"origin_country": ["US"], "poster_path": "/wQoosZYg9FqPrmI4zeCLRdEbqAB.jpg", "name": "The Big Bang Theory", "overview": "The Big Bang Theory is centered on five characters living in Pasadena, California: roommates Leonard Hofstadter and Sheldon Cooper; Penny, a waitress and aspiring actress who lives across the hall; and Leonard and Sheldon's equally geeky and socially awkward friends and co-workers, mechanical engineer Howard Wolowitz and astrophysicist Raj Koothrappali. The geekiness and intellect of the four guys is contrasted for comic effect with Penny's social skills and common sense.", "popularity": 31.16083, "original_name": "The Big Bang Theory", "backdrop_path": "/nGsNruW3W27V6r4gkyc3iiEGsKR.jpg", "vote_average": 7.7, "vote_count": 239, "first_air_date": "2007-09-24", "genre_ids": [18, 35], "id": 1418, "original_language": "en"}, {"origin_country": ["US"], "poster_path": "/8w4m4TvtxfQOEQ2UcUEgidgBasg.jpg", "name": "Blindspot", "overview": "A vast international plot explodes when a beautiful Jane Doe is discovered naked in Times Square, completely covered in mysterious, intricate tattoos with no memory of who she is or how she got there. But there's one tattoo that is impossible to miss: the name of FBI agent Kurt Weller, emblazoned across her back. \"Jane,\" Agent Weller and the rest of the FBI quickly realize that each mark on her body is a crime to solve, leading them closer to the truth about her identity and the mysteries to be revealed.", "popularity": 16.976116, "original_name": "Blindspot", "backdrop_path": "/7pF9Jq7SZ8DEJhVtStKp5uXDeW3.jpg", "vote_average": 9.8, "vote_count": 2, "first_air_date": "2015-09-21", "genre_ids": [18], "id": 62710, "original_language": "en"}, {"origin_country": ["US"], "poster_path": "/hdtCGRP6yYQNqUSqCkCWidPMbgr.jpg", "name": "Castle", "overview": "Created by Andrew W. Marlowe, it primarily traces the lives of Richard Castle, a best-selling mystery novelist, and NYPD Detective Kate Beckett as they solve various unusual crimes in New York City. Detective Beckett is initially infuriated at the thought of working with a writer and goes to great lengths to keep him out of her way. However, the two soon start developing feelings for each other. The show focuses on the romantic tension between the two lead characters, and also on the unsolved homicide of Beckett's mother.", "popularity": 12.773651, "original_name": "Castle", "backdrop_path": "/d6JeM0cdG4iVJAdm9kseKe5JYAv.jpg", "vote_average": 8.0, "vote_count": 59, "first_air_date": "2009-03-08", "genre_ids": [18, 80], "id": 1419, "original_language": "en"}, {"origin_country": ["US"], "poster_path": "/rYptEClCQfXUv6D8gxdS4YBfssu.jpg", "name": "Minority Report", "overview": "Minority Report follows the unlikely partnership between a man haunted by the future and a cop haunted by her past, as they race to stop the worst crimes of the year 2065 before they happen. Set in Washington, D.C., it is 10 years after the demise of Precrime, a law enforcement agency tasked with identifying and eliminating criminals... before their crimes were committed. To carry out this brand of justice, the agency used three precogs - \"precognitives\" Dash, Arthur and Agatha - who were able to see the future. Now, in 2065, crime-solving is different, and justice leans more on sophisticated and trusted technology than on the instincts of the precogs.", "popularity": 11.664072, "original_name": "Minority Report", "backdrop_path": "/prvFw2NX4Czk6ikmvINKOz60wGy.jpg", "vote_average": 3.0, "vote_count": 3, "first_air_date": "2015-09-21", "genre_ids": [18, 80, 878], "id": 63175, "original_language": "en"}, {"origin_country": ["US"], "poster_path": "/pr341lXCuAeyg9OYow6cHV4bZGA.jpg", "name": "Life in Pieces", "overview": "Comedy about one big happy family and their sometimes awkward, often hilarious and ultimately beautiful milestone moments as told by its various members. \n\nOf the three siblings, middle child Matt may have just found his true love, his co-worker, Colleen; his coddled youngest brother, Greg, and his wife, Jen, are overwhelmed by the birth of their first child; and the eldest, Heather, and her husband, Tim, are dreading their impending empty nest so much, they're considering having another baby. Their parents are Joan the family's adoring matriarch who would do anything for her kids - as long as she agrees with it - and John, the gregarious patriarch who's searching for ways to soften the blow of turning 70. As the family's lives unfold in four short stories each week, they try to savor these little pieces of time that flash by but stay with you forever, because these moments add up to what life's all about.", "popularity": 11.100825, "original_name": "Life in Pieces", "backdrop_path": "/mkllznEfZ23OYWaLv6XWnBkn7pt.jpg", "vote_average": 0.0, "vote_count": 0, "first_air_date": "2015-09-21", "genre_ids": [35], "id": 63398, "original_language": "en"}, {"origin_country": ["US"], "poster_path": "/z2iR0vmuoEU5eL2ONwygDuzzlOy.jpg", "name": "Gotham", "overview": "Before there was Batman, there was GOTHAM. \n\nEveryone knows the name Commissioner Gordon. He is one of the crime world's greatest foes, a man whose reputation is synonymous with law and order. But what is known of Gordon's story and his rise from rookie detective to Police Commissioner? What did it take to navigate the multiple layers of corruption that secretly ruled Gotham City, the spawning ground of the world's most iconic villains? And what circumstances created them \u2013 the larger-than-life personas who would become Catwoman, The Penguin, The Riddler, Two-Face and The Joker? ", "popularity": 9.765742, "original_name": "Gotham", "backdrop_path": "/bRFmBU0VPr9s1oeJHuS5Zb5nZQS.jpg", "vote_average": 7.7, "vote_count": 72, "first_air_date": "2014-09-22", "genre_ids": [18, 14, 53, 80], "id": 60708, "original_language": "en"}, {"origin_country": ["US"], "poster_path": "/r3kNKd0paYFas24FQSUs0pGs4FA.jpg", "name": "Switched at Birth", "overview": "The story of two teenage girls who discover they were accidentally switched as newborns in the hospital. Bay Kennish grew up in a wealthy family with two parents and a brother, while Daphne Vasquez, who lost her hearing at an early age due to a case of meningitis, grew up with a single mother in a working-class neighborhood. Things come to a dramatic head when both families meet and struggle to learn how to live together for the sake of the girls.\n\nSwitched at Birth is an American television teen/family drama series that premiered on ABC Family on June 6, 2011, at 9:00 ET/PT. The one-hour scripted drama revolves around two teenagers who were switched at birth and grew up in very different environments. The series' debut was the highest-rated show debut for ABC Family to date. According to ABC Family, it is \"the first mainstream television series to have multiple deaf and hard-of-hearing series regulars and scenes shot entirely in ASL [American Sign Language].\"\n\nOn July 30, 2013, ABC Family ordered a third season of its Peabody Award winning drama, to premiere in January 2014.", "popularity": 7.958681, "original_name": "Switched at Birth", "backdrop_path": "/sZ3OAC8aFARMNz8raMvwBPfPsLV.jpg", "vote_average": 6.4, "vote_count": 6, "first_air_date": "2011-06-06", "genre_ids": [18], "id": 37632, "original_language": "en"}, {"origin_country": ["US"], "poster_path": "/cnHeVPcbjzSS75b2UPRM4tRCzbi.jpg", "name": "Awkward.", "overview": "Awkward is an American teen comedy series created by Lauren Iungerich for MTV. The show's central character is Jenna Hamilton, a Palos Verdes, California, teenager who struggles with her identity, especially after an accident is misconstrued as a suicide attempt.\n\nThe series premiered on July 19, 2011. MTV renewed the series for a second season on August 24, 2011. The second season premiered on June 28, 2012 at 10:30pm. Awkward was officially renewed for a third season with an order of 20 episodes on July 25, 2012, which began airing on April 16, 2013 at 10:00pm. On June 26, 2013 it was announced that the show's creator Lauren Iungerich would be exiting the show after production of Season 3 concludes on June 27, 2013. The rest of the show's third season will pick up on October 22, 2013.\n\nMTV renewed the series for a fourth season on August 5, 2013 with new showrunners, Chris Alberghini and Mike Chessler, to replace creator and former showrunner, Lauren Iungerich.\n\nAwkward's first season was generally well-received with television critics praising the show's realism and writing as well as its central character, and was included in various critics' top ten lists. The show also earned several award nominations, winning one Teen Choice Award and one People's Choice Award.", "popularity": 7.658069, "original_name": "Awkward.", "backdrop_path": "/ofhYKL7Do0Ew2jejhYTI5PPiCNt.jpg", "vote_average": 4.9, "vote_count": 7, "first_air_date": "2011-07-19", "genre_ids": [18, 35], "id": 39859, "original_language": "en"}, {"origin_country": ["US"], "poster_path": "/czsPQq3YuWQpQARixOBczPbJVlL.jpg", "name": "Dominion", "overview": "Dominion is an epic supernatural drama set in the near future. Specifically, 25 years after \"The Extinction War,\" when an army of lower angels, assembled by the archangel Gabriel, waged war against mankind. The archangel Michael, turning against his own kind, chose to side with humanity. Rising out of the ashes of this long battle are newly fortified cities which protect human survivors. At the center of the series is the city of Vega, a glistening empire that has formed from the ruins of what was once Las Vegas. ", "popularity": 6.85374, "original_name": "Dominion", "backdrop_path": "/37d5PyPUljz66sT3zcI2wiNRYit.jpg", "vote_average": 6.0, "vote_count": 30, "first_air_date": "2014-06-19", "genre_ids": [10765, 28, 18], "id": 60685, "original_language": "en"}, {"origin_country": ["GB"], "poster_path": "/kbuwqMryQq9OlHh265HJseUb5I2.jpg", "name": "Celebrity Big Brother", "overview": "Celebrity Big Brother is a British reality television game show in which a number of celebrity contestants live in an isolated house trying to avoid being evicted by the public with the aim of winning a large cash prize being donated to the winner's nominated charity at the end of the run. The programme aired annually between 2001 and 2011, until 2012 when, for the first time, two series aired in the same year. This process has since continued.\n\nThe show is a spin-off of the original series Big Brother. There are a number of differences between Big Brother and Celebrity Big Brother. For example, Celebrity Big Brother lasts for a much shorter time than Big Brother and the celebrities \u2013 so long as they are not ejected or quit the programme \u2013 are paid for their participation.\n\nFrom its inception in 2001, Celebrity Big Brother was broadcast on Channel 4 and its sister channel E4, until Big Brother was cancelled by Channel 4 in 2010 due to falling ratings. Celebrity Big Brother has been broadcast on Channel 5 and its sister channel 5* since Channel 5 acquired the rights in 2011. During its run on Channel 4, Celebrity Big Brother was presented by Davina McCall, who also presented the original show.", "popularity": 6.675165, "original_name": "Celebrity Big Brother", "backdrop_path": "/dcCnDFFtzaMRLtqktADDqONWmc9.jpg", "vote_average": 4.3, "vote_count": 2, "first_air_date": "2001-03-09", "genre_ids": [], "id": 45956, "original_language": "en"}, {"origin_country": ["US"], "poster_path": "/sxhRp6nX6TJagHtBJHImLDJQk8y.jpg", "name": "Faking It", "overview": "A romantic comedy about two best friends who love each other -- in slightly different ways. After numerous failed attempts to become popular, the girls are mistakenly outed as lesbians, which launches them to instant celebrity status. Seduced by their newfound fame, Karma and Amy decide to keep up their romantic ruse.", "popularity": 5.609705, "original_name": "Faking It", "backdrop_path": "/yKxeXyiRdAFmRqsYUuPq9ivT7oq.jpg", "vote_average": 6.2, "vote_count": 7, "first_air_date": "2014-04-22", "genre_ids": [10749, 35], "id": 60705, "original_language": "en"}, {"origin_country": ["US"], "poster_path": "/r73kpyZPa3g0LNJaHZ5o82bWx3f.jpg", "name": "The Late Show with Stephen Colbert", "overview": "Stephen Colbert, the host, writer and executive producer of the Emmy and Peabody Award-winning \"The Colbert Report,\" succeeds David Letterman as the host of \"The Late Show\". Stephen has been given near-full control of the show, with little interference from CBS management in regard to format. Colbert will be bringing most of his staff from \"The Colbert Report\" with him to \"Late Show\", as well as outsiders such as Brian Stack, who is best known for his work on Conan O'Brien's programs. Jonathan Batiste and the \"Stay Human\" band joins \"The Late Show\" as the show's house band. \"Late Show with Stephen Colbert\" is scheduled to premiere on September 8, 2015 and there is a five year agreement between Colbert and CBS.", "popularity": 6.057098, "original_name": "The Late Show with Stephen Colbert", "backdrop_path": "/tnibNl6pHeMhHpoRkOYekdEI7S5.jpg", "vote_average": 7.0, "vote_count": 1, "first_air_date": "2015-09-08", "genre_ids": [35, 10767], "id": 63770, "original_language": "en"}, {"origin_country": ["US"], "poster_path": "/oGsgxjeZ9rd20eCJsGSMGgWvl4P.jpg", "name": "Gravity Falls", "overview": "Twin brother and sister Dipper and Mabel Pines are in for an unexpected adventure when they spend the summer helping their great uncle Stan run a tourist trap in the mysterious town of Gravity Falls, Oregon.", "popularity": 4.670015, "original_name": "Gravity Falls", "backdrop_path": "/sJjrJWsOCUUeVMexxANNC6s3dWV.jpg", "vote_average": 8.2, "vote_count": 14, "first_air_date": "2012-06-15", "genre_ids": [9648, 16, 10765, 35], "id": 40075, "original_language": "en"}, {"origin_country": ["US"], "poster_path": "/dQ2eebGgPRmYRUB9Y5mgszhQICk.jpg", "name": "NCIS: Los Angeles", "overview": "The series follows the exploits of the Los Angeles\u2013based Office of Special Projects (OSP), an elite division of the Naval Criminal Investigative Service that specializes in undercover assignments.", "popularity": 4.559447, "original_name": "NCIS: Los Angeles", "backdrop_path": "/5RtKAFFf7MguCp2fXVXt1ZEsye6.jpg", "vote_average": 6.9, "vote_count": 25, "first_air_date": "2009-09-22", "genre_ids": [80, 18, 10759], "id": 17610, "original_language": "en"}, {"origin_country": ["US"], "poster_path": "/tIViOJS2eoDmktDEx29gXr3Ebhe.jpg", "name": "Scorpion", "overview": "Based on a true story, Scorpion is a high-octane drama about eccentric genius Walter O\u2019Brien and his team of brilliant misfits who comprise the last line of defense against complex, high-tech threats of the modern age. As Homeland Security\u2019s new think tank, O\u2019Brien\u2019s \u201cScorpion\u201d team includes Toby Curtis, an expert behaviorist who can read anyone; Happy Quinn, a mechanical prodigy; and Sylvester Dodd, a statistics guru.", "popularity": 4.447883, "original_name": "Scorpion", "backdrop_path": "/k8rwHWaLm32pVZjdUHZgTK5hE5w.jpg", "vote_average": 6.1, "vote_count": 27, "first_air_date": "2014-09-22", "genre_ids": [28, 18], "id": 60797, "original_language": "en"}, {"origin_country": ["US"], "poster_path": "/5TdHHVglKpcUs6uSKc9yn1Gv4Mb.jpg", "name": "Chasing Life", "overview": "April is a smart aspiring journalist in her 20s who tries to balance her ambitious career with her family, which includes her widowed mom, rebellious little sister, and her grandmother. We meet April at a pivotal moment in her life: she's landed a fantastic opportunity to impress her hard-nosed Boston newspaper editor and an office romance with her super-sexy co-worker Dominic is just beginning to blossom. In an unexpected twist of fate, April lands in the hospital where her estranged uncle George works as an oncologist, and she learns the devastating news that she has cancer. The series follows April through her journey in the face of this daunting revelation, during a time in her life when the challenges of finding love and success would be enough to keep any girl occupied. But April is determined to fight and refuses to give up her dreams and goals.", "popularity": 5.259344, "original_name": "Chasing Life", "backdrop_path": "/yt14mIOPi5TVlKMCVoYLQAdMVda.jpg", "vote_average": 6.5, "vote_count": 3, "first_air_date": "2014-06-10", "genre_ids": [18], "id": 60803, "original_language": "fr"}, {"origin_country": ["RU"], "poster_path": "/xoXdv4gSYuSFIIYaFR8IIsogGbX.jpg", "name": "Interny", "overview": "Medical sitcom Ivan Okhlobystin about doctors who still do not know how to treat, but know how to make people laugh. The main characters of the sitcom - four interns. They always get into stupid situations, and their leader Dr. Bykov pleasure of watching this", "popularity": 5.230424, "original_name": "\u0418\u043d\u0442\u0435\u0440\u043d\u044b", "backdrop_path": "/xFmiUppSZFLyBNIWtbY7ZB9yspi.jpg", "vote_average": 5.9, "vote_count": 5, "first_air_date": "2010-03-29", "genre_ids": [35, 10751], "id": 32651, "original_language": "ru"}, {"origin_country": ["US"], "poster_path": "/mhzS0hhuzKjOhZfpC6em73c0SuD.jpg", "name": "WWE Raw", "overview": "WWE Raw is a professional wrestling television program that currently airs live on Monday evenings on the USA Network in the United States. The show debuted on January 11, 1993. WWE Raw moved from the USA Network to TNN in September, 2000 and then to Spike TV in August, 2003 when TNN was rebranded. On October 3, 2005 WWE Raw returned to the USA Network.\n\nSince its first episode, WWE Raw has broadcast live from 203 different arenas in 169 cities and towns in ten different nations. As of the show's 1,000th episode, airing on July 23, 2012, WWE Raw has become a three-hour broadcast from two-hours, a format that had previously been reserved for special episodes.", "popularity": 4.649794, "original_name": "WWE Raw", "backdrop_path": "/rwCrScdF2JteMvgWdvIHyku5OU9.jpg", "vote_average": 6.5, "vote_count": 4, "first_air_date": "1993-01-11", "genre_ids": [28, 18], "id": 4656, "original_language": "en"}, {"origin_country": ["ES"], "poster_path": "/umXZ592iYUSuV0Hhly3O0u4kBbN.jpg", "name": "Carlos, Rey Emperador", "overview": null, "popularity": 4.512868, "original_name": "Carlos, Rey Emperador", "backdrop_path": "/ukDfdmk7dbApGtsoL5sx9u4MurM.jpg", "vote_average": 8.5, "vote_count": 1, "first_air_date": "2015-09-07", "genre_ids": [18, 36], "id": 63756, "original_language": "es"}, {"origin_country": ["US"], "poster_path": "/3ntseaFS2TQ4xA2EVvTiUOnNUGa.jpg", "name": "Ladies of London", "overview": "Set in the glittering, class-conscious city of London, this docu-series follows a group of elite British socialites and American expats who run in similar social circles, but are worlds apart. From weekend getaways in the English countryside, to high tea at one of London\u2019s exclusive polo-clubs, both groups adhere to London\u2019s strict unwritten rules of engagement where reputation is everything. Although they lead lives of unimaginable wealth, in London\u2019s high society, fortune has less influence than bloodlines and respect is not easily earned.", "popularity": 3.938438, "original_name": "Ladies of London", "backdrop_path": "/ywizYyxBi5dRoksdAEpTPjCz3FN.jpg", "vote_average": 10.0, "vote_count": 1, "first_air_date": "2014-06-02", "genre_ids": [], "id": 60939, "original_language": "en"}]}